00300004000000000000000000110000000000000000003000000000000000
00100004000000000000000000710000000000000000003000000000000000
00100004000000000000000000720000000000000000003000000000000000
00100004000000000000000000730000000000000000003000000000000000
00100004000000000000000000740000000121000000004000000001270500
00100004000000000000000000750000000005058720004000000000053117
00100004000000000000000000760000000000000000003000000000000000
