202007300030000300000000000000000089000000000000000000898000000000030624532372Asoc.Rosarina Anestesiologia  000000000120209000000000000000000000000000000000000000120209000000000000000000000000000000000000000000000000000000000000PES00010000001E00000000000000020200730
202007300030000300000000000000000090000000000000000000908000000000030624532372Asoc.Rosarina Anestesiologia  000000000002100000000000000000000000000000000000000000000000000000000000000000000000000000000000000000000000000000000000PES00010000001000000000000000020200730
202007300010000300000000000000000160000000000000000001608000000000030624532372Asoc.Rosarina Anestesiologia  000000012100000000000000000000000000000000000000000012100000000000000000000000000000000000000000000000000000000000000000PES00010000001E00000000000000020200730
202007300010000300000000000000000161000000000000000001618000000000030624532372Asoc.Rosarina Anestesiologia  000000012100000000000000000000000000000000000000000012100000000000000000000000000000000000000000000000000000000000000000PES00010000001E00000000000000020200730
202007300010000300000000000000000162000000000000000001628000000000030624532372Asoc.Rosarina Anestesiologia  000000006697066000000000000000000000000000000000000006697066000000000000000000000000000000000000000000000000000000000000PES00010000001E00000000000000020200730
202007300010000300000000000000000163000000000000000001638000000000030624532372Asoc.Rosarina Anestesiologia  000000002176082000000000000000000000000000000000000000000000000000000000000000000000000000000000000000000000000000000000PES00010000001000000000000000020200730
