202007300030000300000000000000000070000000000000000000708000000000030624532372Asoc.Rosarina Anestesiologia  000000001151475000000000000000000000000000000000000001151475000000000000000000000000000000000000000000000000000000000000PES00010000001E00000000000000020200730
202007300010000300000000000000000156000000000000000001568000000000030624532372Asoc.Rosarina Anestesiologia  000000012100000000000000000000000000000000000000000012100000000000000000000000000000000000000000000000000000000000000000PES00010000001E00000000000000020200730
202007300010000300000000000000000157000000000000000001578000000000030624532372Asoc.Rosarina Anestesiologia  000000012100000000000000000000000000000000000000000012100000000000000000000000000000000000000000000000000000000000000000PES00010000001E00000000000000020200730
202007300010000300000000000000000158000000000000000001588000000000030624532372Asoc.Rosarina Anestesiologia  000000007122064000000000000000000000000000000000000007122064000000000000000000000000000000000000000000000000000000000000PES00010000001E00000000000000020200730
202007300010000300000000000000000159000000000000000001598000000000030624532372Asoc.Rosarina Anestesiologia  000000013370500000000000000000000000000000000000000000000000000000000000000000000000000000000000000000000000000000000000PES00010000001000000000000000020200730
202007300010000300000000000000000160000000000000000001608000000000030624532372Asoc.Rosarina Anestesiologia  000000002859315000000000000000000000000000000000000000000000000000000000000000000000000000000000000000000000000000000000PES00010000001000000000000000020200730
