00300004000000000000000001010000000000000000003000000000000000
00300004000000000000000001020000000017231430004000000000180930
00100004000000000000000001820000000000000000003000000000000000
00100004000000000000000001830000000000000000003000000000000000
00100004000000000000000001840000000000000000003000000000000000
00100004000000000000000001850000000000000000003000000000000000
00100004000000000000000001860000000000000000003000000000000000
00100004000000000000000001870000000121000000004000000001270500
00100004000000000000000001880000000043704940004000000000458902
