202007300010000300000000000000000199000000000000000001998000000000030624532372Asoc.Rosarina Anestesiologia  000000009784450000000000000000000000000000000000000009784450000000000000000000000000000000000000000000000000000000000000PES00010000001E00000000000000020200730
202007300010000300000000000000000200000000000000000002008000000000030624532372Asoc.Rosarina Anestesiologia  000000004665327000000000000000000000000000000000000000000000000000000000000000000000000000000000000000000000000000000000PES00010000001000000000000000020200730
202007300010000300000000000000000201000000000000000002018000000000030624532372Asoc.Rosarina Anestesiologia  000000014600000000000000000000000000000000000000000014600000000000000000000000000000000000000000000000000000000000000000PES00010000001E00000000000000020200730
202007300010000300000000000000000202000000000000000002028000000000030624532372Asoc.Rosarina Anestesiologia  000000001455600000000000000000000000000000000000000001455600000000000000000000000000000000000000000000000000000000000000PES00010000001E00000000000000020200730
