00300004000000000000000000320000000000000000003000000000000000
00300004000000000000000000330000000009471460004000000000099450
00100004000000000000000000890000000000000000003000000000000000
00100004000000000000000000900000000000000000003000000000000000
00100004000000000000000000910000000000000000003000000000000000
00100004000000000000000000920000000084203550004000000000884137
00100004000000000000000000930000000000000000003000000000000000
