202007300030000300000000000000000093000000000000000000938000000000030624532372Asoc.Rosarina Anestesiologia  000000000957425000000000000000000000000000000000000000957425000000000000000000000000000000000000000000000000000000000000PES00010000001E00000000000000020200730
202007300010000300000000000000000226000000000000000002268000000000030624532372Asoc.Rosarina Anestesiologia  000000012100000000000000000000000000000000000000000012100000000000000000000000000000000000000000000000000000000000000000PES00010000001E00000000000000020200730
202007300010000300000000000000000227000000000000000002278000000000030624532372Asoc.Rosarina Anestesiologia  000000012100000000000000000000000000000000000000000012100000000000000000000000000000000000000000000000000000000000000000PES00010000001E00000000000000020200730
202007300010000300000000000000000228000000000000000002288000000000030624532372Asoc.Rosarina Anestesiologia  000000012100000000000000000000000000000000000000000012100000000000000000000000000000000000000000000000000000000000000000PES00010000001E00000000000000020200730
202007300010000300000000000000000229000000000000000002298000000000030624532372Asoc.Rosarina Anestesiologia  000000000080053000000000000000000000000000000000000000080053000000000000000000000000000000000000000000000000000000000000PES00010000001E00000000000000020200730
202007300010000300000000000000000230000000000000000002308000000000030624532372Asoc.Rosarina Anestesiologia  000000009891795000000000000000000000000000000000000000000000000000000000000000000000000000000000000000000000000000000000PES00010000001000000000000000020200730
202007300010000300000000000000000231000000000000000002318000000000030624532372Asoc.Rosarina Anestesiologia  000000010901800000000000000000000000000000000000000010901800000000000000000000000000000000000000000000000000000000000000PES00010000001E00000000000000020200730
