202007300030000600000000000000000042000000000000000000428000000000030624532372Asoc.Rosarina Anestesiologia  000000000905900000000000000000000000000000000000000000905900000000000000000000000000000000000000000000000000000000000000PES00010000001E00000000000000020200730
202007300010000600000000000000000213000000000000000002138000000000030624532372Asoc.Rosarina Anestesiologia  000000012100000000000000000000000000000000000000000012100000000000000000000000000000000000000000000000000000000000000000PES00010000001E00000000000000020200730
202007300010000600000000000000000214000000000000000002148000000000030624532372Asoc.Rosarina Anestesiologia  000000012100000000000000000000000000000000000000000012100000000000000000000000000000000000000000000000000000000000000000PES00010000001E00000000000000020200730
202007300010000600000000000000000215000000000000000002158000000000030624532372Asoc.Rosarina Anestesiologia  000000003306519000000000000000000000000000000000000003306519000000000000000000000000000000000000000000000000000000000000PES00010000001E00000000000000020200730
202007300010000600000000000000000216000000000000000002168000000000030624532372Asoc.Rosarina Anestesiologia  000000002398071000000000000000000000000000000000000000000000000000000000000000000000000000000000000000000000000000000000PES00010000001000000000000000020200730
202007300010000600000000000000000217000000000000000002178000000000030624532372Asoc.Rosarina Anestesiologia  000000007188000000000000000000000000000000000000000007188000000000000000000000000000000000000000000000000000000000000000PES00010000001E00000000000000020200730
