202007300030000400000000000000000044000000000000000000448000000000030624532372Asoc.Rosarina Anestesiologia  000000000955850000000000000000000000000000000000000000955850000000000000000000000000000000000000000000000000000000000000PES00010000001E00000000000000020200730
202007300010000400000000000000000179000000000000000001798000000000030624532372Asoc.Rosarina Anestesiologia  000000012100000000000000000000000000000000000000000012100000000000000000000000000000000000000000000000000000000000000000PES00010000001E00000000000000020200730
202007300010000400000000000000000180000000000000000001808000000000030624532372Asoc.Rosarina Anestesiologia  000000007084550000000000000000000000000000000000000007084550000000000000000000000000000000000000000000000000000000000000PES00010000001E00000000000000020200730
202007300010000400000000000000000181000000000000000001818000000000030624532372Asoc.Rosarina Anestesiologia  000000008386000000000000000000000000000000000000000008386000000000000000000000000000000000000000000000000000000000000000PES00010000001E00000000000000020200730
