00100003000000000000000002670000000000576030005000000000012097
00300003000000000000000000860000000000000000003000000000000000
00100003000000000000000002680000000000000000003000000000000000
00100003000000000000000002690000000000000000003000000000000000
00100003000000000000000002700000000000000000003000000000000000
00100003000000000000000002710000000000000000003000000000000000
00100003000000000000000002720000000078216640004000000000821275
00100003000000000000000002730000000000000000003000000000000000
00100003000000000000000002740000000000000000003000000000000000
00100003000000000000000002750000000000000000003000000000000000
