00300007000000000000000000900000000000000000003000000000000000
00100007000000000000000002590000000000000000003000000000000000
00100007000000000000000002600000000000000000003000000000000000
00100007000000000000000002610000000000000000003000000000000000
00100007000000000000000002620000000000000000003000000000000000
00100007000000000000000002630000000000000000003000000000000000
00100007000000000000000002640000000000000000003000000000000000
00100007000000000000000002650000000121000000004000000001270500
00100007000000000000000002660000000102273070004000000001073867
00100007000000000000000002670000000000000000003000000000000000
