00100004000000000000000002110000000016827480005000000000353377
00300004000000000000000000910000000000000000003000000000000000
00300004000000000000000000920000000000135290004000000000001421
00100004000000000000000002120000000000000000003000000000000000
00100004000000000000000002130000000000000000003000000000000000
00100004000000000000000002140000000000000000003000000000000000
00100004000000000000000002150000000000000000003000000000000000
00100004000000000000000002160000000000000000003000000000000000
00100004000000000000000002170000000000000000003000000000000000
00100004000000000000000002180000000000000000003000000000000000
00100004000000000000000002190000000070722750004000000000742589
