202007160010000400000000000000000192000000000000000001928000000000030624532372Asoc.Rosarina Anestesiologia  000000001354526000000000000000000000000000000000000000000000000000000000000000000000000000000000000000000000000000000000PES00010000001000000000000000020200716
202007300030000400000000000000000057000000000000000000578000000000030624532372Asoc.Rosarina Anestesiologia  000000002653384000000000000000000000000000000000000002653384000000000000000000000000000000000000000000000000000000000000PES00010000001E00000000000000020200730
202007300030000400000000000000000058000000000000000000588000000000030624532372Asoc.Rosarina Anestesiologia  000000001120554000000000000000000000000000000000000000000000000000000000000000000000000000000000000000000000000000000000PES00010000001000000000000000020200730
202007300010000400000000000000000193000000000000000001938000000000030624532372Asoc.Rosarina Anestesiologia  000000012100000000000000000000000000000000000000000012100000000000000000000000000000000000000000000000000000000000000000PES00010000001E00000000000000020200730
202007300010000400000000000000000194000000000000000001948000000000030624532372Asoc.Rosarina Anestesiologia  000000012100000000000000000000000000000000000000000012100000000000000000000000000000000000000000000000000000000000000000PES00010000001E00000000000000020200730
202007300010000400000000000000000195000000000000000001958000000000030624532372Asoc.Rosarina Anestesiologia  000000012100000000000000000000000000000000000000000012100000000000000000000000000000000000000000000000000000000000000000PES00010000001E00000000000000020200730
202007300010000400000000000000000196000000000000000001968000000000030624532372Asoc.Rosarina Anestesiologia  000000005214959000000000000000000000000000000000000005214959000000000000000000000000000000000000000000000000000000000000PES00010000001E00000000000000020200730
202007300010000400000000000000000197000000000000000001978000000000030624532372Asoc.Rosarina Anestesiologia  000000013370500000000000000000000000000000000000000000000000000000000000000000000000000000000000000000000000000000000000PES00010000001000000000000000020200730
202007300010000400000000000000000198000000000000000001988000000000030624532372Asoc.Rosarina Anestesiologia  000000000237194000000000000000000000000000000000000000000000000000000000000000000000000000000000000000000000000000000000PES00010000001000000000000000020200730
202007300010000400000000000000000199000000000000000001998000000000030624532372Asoc.Rosarina Anestesiologia  000000013999534000000000000000000000000000000000000013999534000000000000000000000000000000000000000000000000000000000000PES00010000001E00000000000000020200730
