202007300010000300000000000000000071000000000000000000718000000000030624532372Asoc.Rosarina Anestesiologia  000000012100000000000000000000000000000000000000000012100000000000000000000000000000000000000000000000000000000000000000PES00010000001E00000000000000020200730
202007300010000300000000000000000072000000000000000000728000000000030624532372Asoc.Rosarina Anestesiologia  000000012100000000000000000000000000000000000000000012100000000000000000000000000000000000000000000000000000000000000000PES00010000001E00000000000000020200730
202007300010000300000000000000000073000000000000000000738000000000030624532372Asoc.Rosarina Anestesiologia  000000002937154000000000000000000000000000000000000002937154000000000000000000000000000000000000000000000000000000000000PES00010000001E00000000000000020200730
202007300010000300000000000000000074000000000000000000748000000000030624532372Asoc.Rosarina Anestesiologia  000000005594244000000000000000000000000000000000000000000000000000000000000000000000000000000000000000000000000000000000PES00010000001000000000000000020200730
202007300010000300000000000000000075000000000000000000758000000000030624532372Asoc.Rosarina Anestesiologia  000000013178000000000000000000000000000000000000000013178000000000000000000000000000000000000000000000000000000000000000PES00010000001E00000000000000020200730
