202007300030000300000000000000000046000000000000000000468000000000030624532372Asoc.Rosarina Anestesiologia  000000000161156000000000000000000000000000000000000000161156000000000000000000000000000000000000000000000000000000000000PES00010000001E00000000000000020200730
202007300010000300000000000000000184000000000000000001848000000000030624532372Asoc.Rosarina Anestesiologia  000000012100000000000000000000000000000000000000000012100000000000000000000000000000000000000000000000000000000000000000PES00010000001E00000000000000020200730
202007300010000300000000000000000185000000000000000001858000000000030624532372Asoc.Rosarina Anestesiologia  000000012100000000000000000000000000000000000000000012100000000000000000000000000000000000000000000000000000000000000000PES00010000001E00000000000000020200730
202007300010000300000000000000000186000000000000000001868000000000030624532372Asoc.Rosarina Anestesiologia  000000002394634000000000000000000000000000000000000002394634000000000000000000000000000000000000000000000000000000000000PES00010000001E00000000000000020200730
202007300010000300000000000000000187000000000000000001878000000000030624532372Asoc.Rosarina Anestesiologia  000000001358336000000000000000000000000000000000000000000000000000000000000000000000000000000000000000000000000000000000PES00010000001000000000000000020200730
202007300010000300000000000000000188000000000000000001888000000000030624532372Asoc.Rosarina Anestesiologia  000000014600000000000000000000000000000000000000000014600000000000000000000000000000000000000000000000000000000000000000PES00010000001E00000000000000020200730
202007300010000300000000000000000189000000000000000001898000000000030624532372Asoc.Rosarina Anestesiologia  000000005887000000000000000000000000000000000000000005887000000000000000000000000000000000000000000000000000000000000000PES00010000001E00000000000000020200730
