00100005000000000000000003010000000000622440005000000000013071
00300005000000000000000000990000000000000000003000000000000000
00100005000000000000000003020000000000000000003000000000000000
00100005000000000000000003030000000000000000003000000000000000
00100005000000000000000003040000000000000000003000000000000000
00100005000000000000000003050000000000000000003000000000000000
00100005000000000000000003060000000000000000003000000000000000
00100005000000000000000003070000000000000000003000000000000000
00100005000000000000000003080000000000000000003000000000000000
00100005000000000000000003090000000000000000003000000000000000
00100005000000000000000003100000000121000000004000000001270500
00100005000000000000000003110000000121000000004000000001270500
00100005000000000000000003120000000035348750004000000000371162
00100005000000000000000003130000000000000000003000000000000000
