202007300030000400000000000000000054000000000000000000548000000000030624532372Asoc.Rosarina Anestesiologia  000000000046622000000000000000000000000000000000000000046622000000000000000000000000000000000000000000000000000000000000PES00010000001E00000000000000020200730
202007300010000400000000000000000115000000000000000001158000000000030624532372Asoc.Rosarina Anestesiologia  000000012100000000000000000000000000000000000000000012100000000000000000000000000000000000000000000000000000000000000000PES00010000001E00000000000000020200730
202007300010000400000000000000000116000000000000000001168000000000030624532372Asoc.Rosarina Anestesiologia  000000003498481000000000000000000000000000000000000003498481000000000000000000000000000000000000000000000000000000000000PES00010000001E00000000000000020200730
