202007160010000300000000000000000163000000000000000001638000000000030624532372Asoc.Rosarina Anestesiologia  000000001506535000000000000000000000000000000000000000000000000000000000000000000000000000000000000000000000000000000000PES00010000001000000000000000020200716
202007300030000300000000000000000099000000000000000000998000000000030624532372Asoc.Rosarina Anestesiologia  000000001184539000000000000000000000000000000000000001184539000000000000000000000000000000000000000000000000000000000000PES00010000001E00000000000000020200730
202007300030000300000000000000000100000000000000000001008000000000030624532372Asoc.Rosarina Anestesiologia  000000000012322000000000000000000000000000000000000000000000000000000000000000000000000000000000000000000000000000000000PES00010000001000000000000000020200730
