202007300030000400000000000000000096000000000000000000968000000000030624532372Asoc.Rosarina Anestesiologia  000000000617110000000000000000000000000000000000000000617110000000000000000000000000000000000000000000000000000000000000PES00010000001E00000000000000020200730
202007300010000400000000000000000179000000000000000001798000000000030624532372Asoc.Rosarina Anestesiologia  000000012100000000000000000000000000000000000000000012100000000000000000000000000000000000000000000000000000000000000000PES00010000001E00000000000000020200730
202007300010000400000000000000000180000000000000000001808000000000030624532372Asoc.Rosarina Anestesiologia  000000012100000000000000000000000000000000000000000012100000000000000000000000000000000000000000000000000000000000000000PES00010000001E00000000000000020200730
202007300010000400000000000000000181000000000000000001818000000000030624532372Asoc.Rosarina Anestesiologia  000000012100000000000000000000000000000000000000000012100000000000000000000000000000000000000000000000000000000000000000PES00010000001E00000000000000020200730
202007300010000400000000000000000182000000000000000001828000000000030624532372Asoc.Rosarina Anestesiologia  000000008737220000000000000000000000000000000000000008737220000000000000000000000000000000000000000000000000000000000000PES00010000001E00000000000000020200730
202007300010000400000000000000000183000000000000000001838000000000030624532372Asoc.Rosarina Anestesiologia  000000013370500000000000000000000000000000000000000000000000000000000000000000000000000000000000000000000000000000000000PES00010000001000000000000000020200730
202007300010000400000000000000000184000000000000000001848000000000030624532372Asoc.Rosarina Anestesiologia  000000007302904000000000000000000000000000000000000000000000000000000000000000000000000000000000000000000000000000000000PES00010000001000000000000000020200730
