00100004000000000000000001520000000000000000003000000000000000
00100004000000000000000001530000000011696350004000000000122812
00100004000000000000000001540000000000000000003000000000000000
00100004000000000000000001550000000000000000003000000000000000
