00300003000000000000000000530000000000000000003000000000000000
00300003000000000000000000540000000000061000004000000000000641
00100003000000000000000001300000000000000000003000000000000000
00100003000000000000000001310000000000592000004000000000006216
00100003000000000000000001320000000000000000003000000000000000
