00300004000000000000000000760000000000000000003000000000000000
00300004000000000000000000770000000001997490004000000000020974
00100004000000000000000001820000000000000000003000000000000000
00100004000000000000000001830000000000000000003000000000000000
00100004000000000000000001840000000000000000003000000000000000
00100004000000000000000001850000000000000000003000000000000000
00100004000000000000000001860000000006131000004000000000064376
00100004000000000000000001870000000004545940005000000000095465
