202007300030000400000000000000000085000000000000000000858000000000030624532372Asoc.Rosarina Anestesiologia  000000000906920000000000000000000000000000000000000000906920000000000000000000000000000000000000000000000000000000000000PES00010000001E00000000000000020200730
202007300030000400000000000000000086000000000000000000868000000000030624532372Asoc.Rosarina Anestesiologia  000000000014950000000000000000000000000000000000000000000000000000000000000000000000000000000000000000000000000000000000PES00010000001000000000000000020200730
202007300010000400000000000000000221000000000000000002218000000000030624532372Asoc.Rosarina Anestesiologia  000000012100000000000000000000000000000000000000000012100000000000000000000000000000000000000000000000000000000000000000PES00010000001E00000000000000020200730
202007300010000400000000000000000222000000000000000002228000000000030624532372Asoc.Rosarina Anestesiologia  000000012100000000000000000000000000000000000000000012100000000000000000000000000000000000000000000000000000000000000000PES00010000001E00000000000000020200730
202007300010000400000000000000000223000000000000000002238000000000030624532372Asoc.Rosarina Anestesiologia  000000012100000000000000000000000000000000000000000012100000000000000000000000000000000000000000000000000000000000000000PES00010000001E00000000000000020200730
202007300010000400000000000000000224000000000000000002248000000000030624532372Asoc.Rosarina Anestesiologia  000000012100000000000000000000000000000000000000000012100000000000000000000000000000000000000000000000000000000000000000PES00010000001E00000000000000020200730
202007300010000400000000000000000225000000000000000002258000000000030624532372Asoc.Rosarina Anestesiologia  000000008991848000000000000000000000000000000000000008991848000000000000000000000000000000000000000000000000000000000000PES00010000001E00000000000000020200730
202007300010000400000000000000000226000000000000000002268000000000030624532372Asoc.Rosarina Anestesiologia  000000009614194000000000000000000000000000000000000000000000000000000000000000000000000000000000000000000000000000000000PES00010000001000000000000000020200730
202007300010000400000000000000000227000000000000000002278000000000030624532372Asoc.Rosarina Anestesiologia  000000001437600000000000000000000000000000000000000001437600000000000000000000000000000000000000000000000000000000000000PES00010000001E00000000000000020200730
