00300004000000000000000000750000000000000000003000000000000000
00100004000000000000000002220000000000000000003000000000000000
00100004000000000000000002230000000000000000003000000000000000
00100004000000000000000002240000000026055610004000000000273584
00100004000000000000000002250000000000000000003000000000000000
00100004000000000000000002260000000000000000003000000000000000
00100004000000000000000002270000000000000000003000000000000000
00100004000000000000000002280000000000000000003000000000000000
