202007300030000300000000000000000006000000000000000000068000000000030624532372Asoc.Rosarina Anestesiologia  000000000539529000000000000000000000000000000000000000539529000000000000000000000000000000000000000000000000000000000000PES00010000001E00000000000000020200730
202007300010000300000000000000000057000000000000000000578000000000030624532372Asoc.Rosarina Anestesiologia  000000003528600000000000000000000000000000000000000003528600000000000000000000000000000000000000000000000000000000000000PES00010000001E00000000000000020200730
202007300010000300000000000000000058000000000000000000588000000000030624532372Asoc.Rosarina Anestesiologia  000000014600000000000000000000000000000000000000000014600000000000000000000000000000000000000000000000000000000000000000PES00010000001E00000000000000020200730
202007300010000300000000000000000059000000000000000000598000000000030624532372Asoc.Rosarina Anestesiologia  000000002053400000000000000000000000000000000000000002053400000000000000000000000000000000000000000000000000000000000000PES00010000001E00000000000000020200730
