00300004000000000000000000880000000000000000003000000000000000
00300004000000000000000000890000000010785980004000000000113253
00100004000000000000000002300000000000000000003000000000000000
00100004000000000000000002310000000000000000003000000000000000
00100004000000000000000002320000000000000000003000000000000000
00100004000000000000000002330000000000000000003000000000000000
00100004000000000000000002340000000000000000003000000000000000
00100004000000000000000002350000000121000000004000000001270500
00100004000000000000000002360000000014941290004000000000156884
00100004000000000000000002370000000000000000003000000000000000
