202007300030000400000000000000000065000000000000000000658000000000030624532372Asoc.Rosarina Anestesiologia  000000002376897000000000000000000000000000000000000002376897000000000000000000000000000000000000000000000000000000000000PES00010000001E00000000000000020200730
202007300030000400000000000000000066000000000000000000668000000000030624532372Asoc.Rosarina Anestesiologia  000000001200525000000000000000000000000000000000000000000000000000000000000000000000000000000000000000000000000000000000PES00010000001000000000000000020200730
202007300010000400000000000000000183000000000000000001838000000000030624532372Asoc.Rosarina Anestesiologia  000000012100000000000000000000000000000000000000000012100000000000000000000000000000000000000000000000000000000000000000PES00010000001E00000000000000020200730
202007300010000400000000000000000184000000000000000001848000000000030624532372Asoc.Rosarina Anestesiologia  000000012100000000000000000000000000000000000000000012100000000000000000000000000000000000000000000000000000000000000000PES00010000001E00000000000000020200730
202007300010000400000000000000000185000000000000000001858000000000030624532372Asoc.Rosarina Anestesiologia  000000012100000000000000000000000000000000000000000012100000000000000000000000000000000000000000000000000000000000000000PES00010000001E00000000000000020200730
202007300010000400000000000000000186000000000000000001868000000000030624532372Asoc.Rosarina Anestesiologia  000000012100000000000000000000000000000000000000000012100000000000000000000000000000000000000000000000000000000000000000PES00010000001E00000000000000020200730
202007300010000400000000000000000187000000000000000001878000000000030624532372Asoc.Rosarina Anestesiologia  000000008872626000000000000000000000000000000000000008872626000000000000000000000000000000000000000000000000000000000000PES00010000001E00000000000000020200730
202007300010000400000000000000000188000000000000000001888000000000030624532372Asoc.Rosarina Anestesiologia  000000004066421000000000000000000000000000000000000000000000000000000000000000000000000000000000000000000000000000000000PES00010000001000000000000000020200730
202007300010000400000000000000000189000000000000000001898000000000030624532372Asoc.Rosarina Anestesiologia  000000008986800000000000000000000000000000000000000008986800000000000000000000000000000000000000000000000000000000000000PES00010000001E00000000000000020200730
