202007160010000600000000000000000214000000000000000002148000000000030624532372Asoc.Rosarina Anestesiologia  000000000158846000000000000000000000000000000000000000000000000000000000000000000000000000000000000000000000000000000000PES00010000001000000000000000020200716
202007300030000600000000000000000034000000000000000000348000000000030624532372Asoc.Rosarina Anestesiologia  000000003243050000000000000000000000000000000000000003243050000000000000000000000000000000000000000000000000000000000000PES00010000001E00000000000000020200730
202007300030000600000000000000000035000000000000000000358000000000030624532372Asoc.Rosarina Anestesiologia  000000000015500000000000000000000000000000000000000000000000000000000000000000000000000000000000000000000000000000000000PES00010000001000000000000000020200730
202007300010000600000000000000000215000000000000000002158000000000030624532372Asoc.Rosarina Anestesiologia  000000012100000000000000000000000000000000000000000012100000000000000000000000000000000000000000000000000000000000000000PES00010000001E00000000000000020200730
202007300010000600000000000000000216000000000000000002168000000000030624532372Asoc.Rosarina Anestesiologia  000000012100000000000000000000000000000000000000000012100000000000000000000000000000000000000000000000000000000000000000PES00010000001E00000000000000020200730
202007300010000600000000000000000217000000000000000002178000000000030624532372Asoc.Rosarina Anestesiologia  000000010138085000000000000000000000000000000000000010138085000000000000000000000000000000000000000000000000000000000000PES00010000001E00000000000000020200730
202007300010000600000000000000000218000000000000000002188000000000030624532372Asoc.Rosarina Anestesiologia  000000000993395000000000000000000000000000000000000000000000000000000000000000000000000000000000000000000000000000000000PES00010000001000000000000000020200730
202007300010000600000000000000000219000000000000000002198000000000030624532372Asoc.Rosarina Anestesiologia  000000014600000000000000000000000000000000000000000014600000000000000000000000000000000000000000000000000000000000000000PES00010000001E00000000000000020200730
202007300010000600000000000000000220000000000000000002208000000000030624532372Asoc.Rosarina Anestesiologia  000000008285400000000000000000000000000000000000000008285400000000000000000000000000000000000000000000000000000000000000PES00010000001E00000000000000020200730
