202007160010000400000000000000000211000000000000000002118000000000030624532372Asoc.Rosarina Anestesiologia  000000002036125000000000000000000000000000000000000000000000000000000000000000000000000000000000000000000000000000000000PES00010000001000000000000000020200716
202007300030000400000000000000000091000000000000000000918000000000030624532372Asoc.Rosarina Anestesiologia  000000001712773000000000000000000000000000000000000001712773000000000000000000000000000000000000000000000000000000000000PES00010000001E00000000000000020200730
202007300030000400000000000000000092000000000000000000928000000000030624532372Asoc.Rosarina Anestesiologia  000000000014950000000000000000000000000000000000000000000000000000000000000000000000000000000000000000000000000000000000PES00010000001000000000000000020200730
202007300010000400000000000000000212000000000000000002128000000000030624532372Asoc.Rosarina Anestesiologia  000000012100000000000000000000000000000000000000000012100000000000000000000000000000000000000000000000000000000000000000PES00010000001E00000000000000020200730
202007300010000400000000000000000213000000000000000002138000000000030624532372Asoc.Rosarina Anestesiologia  000000012100000000000000000000000000000000000000000012100000000000000000000000000000000000000000000000000000000000000000PES00010000001E00000000000000020200730
202007300010000400000000000000000214000000000000000002148000000000030624532372Asoc.Rosarina Anestesiologia  000000012100000000000000000000000000000000000000000012100000000000000000000000000000000000000000000000000000000000000000PES00010000001E00000000000000020200730
202007300010000400000000000000000215000000000000000002158000000000030624532372Asoc.Rosarina Anestesiologia  000000012100000000000000000000000000000000000000000012100000000000000000000000000000000000000000000000000000000000000000PES00010000001E00000000000000020200730
202007300010000400000000000000000216000000000000000002168000000000030624532372Asoc.Rosarina Anestesiologia  000000012100000000000000000000000000000000000000000012100000000000000000000000000000000000000000000000000000000000000000PES00010000001E00000000000000020200730
202007300010000400000000000000000217000000000000000002178000000000030624532372Asoc.Rosarina Anestesiologia  000000012100000000000000000000000000000000000000000012100000000000000000000000000000000000000000000000000000000000000000PES00010000001E00000000000000020200730
202007300010000400000000000000000218000000000000000002188000000000030624532372Asoc.Rosarina Anestesiologia  000000004891090000000000000000000000000000000000000004891090000000000000000000000000000000000000000000000000000000000000PES00010000001E00000000000000020200730
202007300010000400000000000000000219000000000000000002198000000000030624532372Asoc.Rosarina Anestesiologia  000000007814864000000000000000000000000000000000000000000000000000000000000000000000000000000000000000000000000000000000PES00010000001000000000000000020200730
