202007160010000400000000000000000146000000000000000001468000000000030624532372Asoc.Rosarina Anestesiologia  000000003996307000000000000000000000000000000000000000000000000000000000000000000000000000000000000000000000000000000000PES00010000001000000000000000020200716
202007300030000400000000000000000066000000000000000000668000000000030624532372Asoc.Rosarina Anestesiologia  000000000682529000000000000000000000000000000000000000682529000000000000000000000000000000000000000000000000000000000000PES00010000001E00000000000000020200730
202007300010000400000000000000000147000000000000000001478000000000030624532372Asoc.Rosarina Anestesiologia  000000001133405000000000000000000000000000000000000001133405000000000000000000000000000000000000000000000000000000000000PES00010000001E00000000000000020200730
