202007300030000400000000000000000094000000000000000000948000000000030624532372Asoc.Rosarina Anestesiologia  000000000251855000000000000000000000000000000000000000251855000000000000000000000000000000000000000000000000000000000000PES00010000001E00000000000000020200730
202007300010000400000000000000000195000000000000000001958000000000030624532372Asoc.Rosarina Anestesiologia  000000012100000000000000000000000000000000000000000012100000000000000000000000000000000000000000000000000000000000000000PES00010000001E00000000000000020200730
202007300010000400000000000000000196000000000000000001968000000000030624532372Asoc.Rosarina Anestesiologia  000000012100000000000000000000000000000000000000000012100000000000000000000000000000000000000000000000000000000000000000PES00010000001E00000000000000020200730
202007300010000400000000000000000197000000000000000001978000000000030624532372Asoc.Rosarina Anestesiologia  000000012100000000000000000000000000000000000000000012100000000000000000000000000000000000000000000000000000000000000000PES00010000001E00000000000000020200730
202007300010000400000000000000000198000000000000000001988000000000030624532372Asoc.Rosarina Anestesiologia  000000012100000000000000000000000000000000000000000012100000000000000000000000000000000000000000000000000000000000000000PES00010000001E00000000000000020200730
202007300010000400000000000000000199000000000000000001998000000000030624532372Asoc.Rosarina Anestesiologia  000000012100000000000000000000000000000000000000000012100000000000000000000000000000000000000000000000000000000000000000PES00010000001E00000000000000020200730
202007300010000400000000000000000200000000000000000002008000000000030624532372Asoc.Rosarina Anestesiologia  000000000775869000000000000000000000000000000000000000775869000000000000000000000000000000000000000000000000000000000000PES00010000001E00000000000000020200730
202007300010000400000000000000000201000000000000000002018000000000030624532372Asoc.Rosarina Anestesiologia  000000007404329000000000000000000000000000000000000000000000000000000000000000000000000000000000000000000000000000000000PES00010000001000000000000000020200730
202007300010000400000000000000000202000000000000000002028000000000030624532372Asoc.Rosarina Anestesiologia  000000002669260000000000000000000000000000000000000000000000000000000000000000000000000000000000000000000000000000000000PES00010000001000000000000000020200730
