202007300030000300000000000000000030000000000000000000308000000000030624532372Asoc.Rosarina Anestesiologia  000000000532500000000000000000000000000000000000000000532500000000000000000000000000000000000000000000000000000000000000PES00010000001E00000000000000020200730
202007300010000300000000000000000143000000000000000001438000000000030624532372Asoc.Rosarina Anestesiologia  000000012100000000000000000000000000000000000000000012100000000000000000000000000000000000000000000000000000000000000000PES00010000001E00000000000000020200730
202007300010000300000000000000000144000000000000000001448000000000030624532372Asoc.Rosarina Anestesiologia  000000004065242000000000000000000000000000000000000004065242000000000000000000000000000000000000000000000000000000000000PES00010000001E00000000000000020200730
