202007300030000400000000000000000068000000000000000000688000000000030624532372Asoc.Rosarina Anestesiologia  000000000389536000000000000000000000000000000000000000000000000000000000000000000000000000000000000000000000000000000000PES00010000001000000000000000020200730
202007300010000400000000000000000192000000000000000001928000000000030624532372Asoc.Rosarina Anestesiologia  000000010519744000000000000000000000000000000000000010519744000000000000000000000000000000000000000000000000000000000000PES00010000001E00000000000000020200730
202007300010000400000000000000000193000000000000000001938000000000030624532372Asoc.Rosarina Anestesiologia  000000014600000000000000000000000000000000000000000014600000000000000000000000000000000000000000000000000000000000000000PES00010000001E00000000000000020200730
202007300010000400000000000000000194000000000000000001948000000000030624532372Asoc.Rosarina Anestesiologia  000000001333400000000000000000000000000000000000000001333400000000000000000000000000000000000000000000000000000000000000PES00010000001E00000000000000020200730
