202007300030000500000000000000000109000000000000000001098000000000030624532372Asoc.Rosarina Anestesiologia  000000000835923000000000000000000000000000000000000000835923000000000000000000000000000000000000000000000000000000000000PES00010000001E00000000000000020200730
202007300030000500000000000000000110000000000000000001108000000000030624532372Asoc.Rosarina Anestesiologia  000000000408316000000000000000000000000000000000000000000000000000000000000000000000000000000000000000000000000000000000PES00010000001000000000000000020200730
202007300010000500000000000000000263000000000000000002638000000000030624532372Asoc.Rosarina Anestesiologia  000000012100000000000000000000000000000000000000000012100000000000000000000000000000000000000000000000000000000000000000PES00010000001E00000000000000020200730
202007300010000500000000000000000264000000000000000002648000000000030624532372Asoc.Rosarina Anestesiologia  000000012100000000000000000000000000000000000000000012100000000000000000000000000000000000000000000000000000000000000000PES00010000001E00000000000000020200730
202007300010000500000000000000000265000000000000000002658000000000030624532372Asoc.Rosarina Anestesiologia  000000011315935000000000000000000000000000000000000011315935000000000000000000000000000000000000000000000000000000000000PES00010000001E00000000000000020200730
202007300010000500000000000000000266000000000000000002668000000000030624532372Asoc.Rosarina Anestesiologia  000000012690157000000000000000000000000000000000000000000000000000000000000000000000000000000000000000000000000000000000PES00010000001000000000000000020200730
202007300010000500000000000000000267000000000000000002678000000000030624532372Asoc.Rosarina Anestesiologia  000000014600000000000000000000000000000000000000000014600000000000000000000000000000000000000000000000000000000000000000PES00010000001E00000000000000020200730
202007300010000500000000000000000268000000000000000002688000000000030624532372Asoc.Rosarina Anestesiologia  000000004208800000000000000000000000000000000000000004208800000000000000000000000000000000000000000000000000000000000000PES00010000001E00000000000000020200730
