202007300030000400000000000000000093000000000000000000938000000000030624532372Asoc.Rosarina Anestesiologia  000000001855345000000000000000000000000000000000000001855345000000000000000000000000000000000000000000000000000000000000PES00010000001E00000000000000020200730
202007300030000400000000000000000094000000000000000000948000000000030624532372Asoc.Rosarina Anestesiologia  000000000474681000000000000000000000000000000000000000000000000000000000000000000000000000000000000000000000000000000000PES00010000001000000000000000020200730
202007300010000400000000000000000333000000000000000003338000000000030624532372Asoc.Rosarina Anestesiologia  000000012100000000000000000000000000000000000000000012100000000000000000000000000000000000000000000000000000000000000000PES00010000001E00000000000000020200730
202007300010000400000000000000000334000000000000000003348000000000030624532372Asoc.Rosarina Anestesiologia  000000012100000000000000000000000000000000000000000012100000000000000000000000000000000000000000000000000000000000000000PES00010000001E00000000000000020200730
202007300010000400000000000000000335000000000000000003358000000000030624532372Asoc.Rosarina Anestesiologia  000000012100000000000000000000000000000000000000000012100000000000000000000000000000000000000000000000000000000000000000PES00010000001E00000000000000020200730
202007300010000400000000000000000336000000000000000003368000000000030624532372Asoc.Rosarina Anestesiologia  000000012100000000000000000000000000000000000000000012100000000000000000000000000000000000000000000000000000000000000000PES00010000001E00000000000000020200730
202007300010000400000000000000000337000000000000000003378000000000030624532372Asoc.Rosarina Anestesiologia  000000012100000000000000000000000000000000000000000012100000000000000000000000000000000000000000000000000000000000000000PES00010000001E00000000000000020200730
202007300010000400000000000000000338000000000000000003388000000000030624532372Asoc.Rosarina Anestesiologia  000000012100000000000000000000000000000000000000000012100000000000000000000000000000000000000000000000000000000000000000PES00010000001E00000000000000020200730
202007300010000400000000000000000339000000000000000003398000000000030624532372Asoc.Rosarina Anestesiologia  000000012100000000000000000000000000000000000000000012100000000000000000000000000000000000000000000000000000000000000000PES00010000001E00000000000000020200730
202007300010000400000000000000000340000000000000000003408000000000030624532372Asoc.Rosarina Anestesiologia  000000012100000000000000000000000000000000000000000012100000000000000000000000000000000000000000000000000000000000000000PES00010000001E00000000000000020200730
202007300010000400000000000000000341000000000000000003418000000000030624532372Asoc.Rosarina Anestesiologia  000000012100000000000000000000000000000000000000000012100000000000000000000000000000000000000000000000000000000000000000PES00010000001E00000000000000020200730
202007300010000400000000000000000342000000000000000003428000000000030624532372Asoc.Rosarina Anestesiologia  000000012100000000000000000000000000000000000000000012100000000000000000000000000000000000000000000000000000000000000000PES00010000001E00000000000000020200730
202007300010000400000000000000000343000000000000000003438000000000030624532372Asoc.Rosarina Anestesiologia  000000012100000000000000000000000000000000000000000012100000000000000000000000000000000000000000000000000000000000000000PES00010000001E00000000000000020200730
202007300010000400000000000000000344000000000000000003448000000000030624532372Asoc.Rosarina Anestesiologia  000000012100000000000000000000000000000000000000000012100000000000000000000000000000000000000000000000000000000000000000PES00010000001E00000000000000020200730
202007300010000400000000000000000345000000000000000003458000000000030624532372Asoc.Rosarina Anestesiologia  000000005995247000000000000000000000000000000000000005995247000000000000000000000000000000000000000000000000000000000000PES00010000001E00000000000000020200730
202007300010000400000000000000000346000000000000000003468000000000030624532372Asoc.Rosarina Anestesiologia  000000013370500000000000000000000000000000000000000000000000000000000000000000000000000000000000000000000000000000000000PES00010000001000000000000000020200730
202007300010000400000000000000000347000000000000000003478000000000030624532372Asoc.Rosarina Anestesiologia  000000001155117000000000000000000000000000000000000000000000000000000000000000000000000000000000000000000000000000000000PES00010000001000000000000000020200730
202007300010000400000000000000000348000000000000000003488000000000030624532372Asoc.Rosarina Anestesiologia  000000010446233000000000000000000000000000000000000000000000000000000000000000000000000000000000000000000000000000000000PES00010000001000000000000000020200730
202007300010000400000000000000000349000000000000000003498000000000030624532372Asoc.Rosarina Anestesiologia  000000014600000000000000000000000000000000000000000014600000000000000000000000000000000000000000000000000000000000000000PES00010000001E00000000000000020200730
202007300010000400000000000000000350000000000000000003508000000000030624532372Asoc.Rosarina Anestesiologia  000000008982300000000000000000000000000000000000000008982300000000000000000000000000000000000000000000000000000000000000PES00010000001E00000000000000020200730
