00300003000000000000000000850000000000000000003000000000000000
00100003000000000000000002530000000000000000003000000000000000
00100003000000000000000002540000000000000000003000000000000000
00100003000000000000000002550000000000000000003000000000000000
00100003000000000000000002560000000000000000003000000000000000
00100003000000000000000002570000000000000000003000000000000000
00100003000000000000000002580000000000000000003000000000000000
00100003000000000000000002590000000121000000004000000001270500
00100003000000000000000002600000000006396130004000000000067159
00100003000000000000000002610000000000000000003000000000000000
00100003000000000000000002620000000000000000003000000000000000
