00100003000000000000000002070000000000000000003000000000000000
00100003000000000000000002080000000007146110004000000000075034
00100003000000000000000002090000000000000000003000000000000000
00100003000000000000000002100000000000000000003000000000000000
