00300003000000000000000000460000000000000000003000000000000000
00100003000000000000000001840000000000000000003000000000000000
00100003000000000000000001850000000000000000003000000000000000
00100003000000000000000001860000000000000000003000000000000000
00100003000000000000000001870000000012292630004000000000129073
00100003000000000000000001880000000000000000003000000000000000
00100003000000000000000001890000000000000000003000000000000000
