00300003000000000000000000280000000000000000003000000000000000
00300003000000000000000000290000000000972920004000000000010216
00100003000000000000000001250000000000000000003000000000000000
00100003000000000000000001260000000000000000003000000000000000
00100003000000000000000001270000000000000000003000000000000000
00100003000000000000000001280000000000000000003000000000000000
00100003000000000000000001290000000000000000003000000000000000
00100003000000000000000001300000000022546550004000000000236739
00100003000000000000000001310000000002283930005000000000047963
00100003000000000000000001320000000000000000003000000000000000
