202007300030000500000000000000000071000000000000000000718000000000030624532372Asoc.Rosarina Anestesiologia  000000000020475000000000000000000000000000000000000000020475000000000000000000000000000000000000000000000000000000000000PES00010000001E00000000000000020200730
202007300030000500000000000000000072000000000000000000728000000000030624532372Asoc.Rosarina Anestesiologia  000000001242737000000000000000000000000000000000000000000000000000000000000000000000000000000000000000000000000000000000PES00010000001000000000000000020200730
202007300010000500000000000000000158000000000000000001588000000000030624532372Asoc.Rosarina Anestesiologia  000000012100000000000000000000000000000000000000000012100000000000000000000000000000000000000000000000000000000000000000PES00010000001E00000000000000020200730
202007300010000500000000000000000159000000000000000001598000000000030624532372Asoc.Rosarina Anestesiologia  000000012100000000000000000000000000000000000000000012100000000000000000000000000000000000000000000000000000000000000000PES00010000001E00000000000000020200730
202007300010000500000000000000000160000000000000000001608000000000030624532372Asoc.Rosarina Anestesiologia  000000012100000000000000000000000000000000000000000012100000000000000000000000000000000000000000000000000000000000000000PES00010000001E00000000000000020200730
202007300010000500000000000000000161000000000000000001618000000000030624532372Asoc.Rosarina Anestesiologia  000000012100000000000000000000000000000000000000000012100000000000000000000000000000000000000000000000000000000000000000PES00010000001E00000000000000020200730
202007300010000500000000000000000162000000000000000001628000000000030624532372Asoc.Rosarina Anestesiologia  000000012100000000000000000000000000000000000000000012100000000000000000000000000000000000000000000000000000000000000000PES00010000001E00000000000000020200730
202007300010000500000000000000000163000000000000000001638000000000030624532372Asoc.Rosarina Anestesiologia  000000007883450000000000000000000000000000000000000007883450000000000000000000000000000000000000000000000000000000000000PES00010000001E00000000000000020200730
202007300010000500000000000000000164000000000000000001648000000000030624532372Asoc.Rosarina Anestesiologia  000000006405684000000000000000000000000000000000000000000000000000000000000000000000000000000000000000000000000000000000PES00010000001000000000000000020200730
